lang1b,org.apache.commons.lang3.math.NumberUtils
lang3b,org.apache.commons.lang3.math.NumberUtils
lang4b,org.apache.commons.lang3.text.translate.LookupTranslator
lang5b,org.apache.commons.lang3.LocaleUtils
lang6b,org.apache.commons.lang3.text.translate.CharSequenceTranslator
lang7b,org.apache.commons.lang3.math.NumberUtils
lang8b,org.apache.commons.lang3.time.FastDatePrinter
lang9b,org.apache.commons.lang3.time.FastDateParser
lang10b,org.apache.commons.lang3.time.FastDateParser
lang11b,org.apache.commons.lang3.RandomStringUtils
lang12b,org.apache.commons.lang3.RandomStringUtils
lang13b,org.apache.commons.lang3.SerializationUtils
lang14b,org.apache.commons.lang3.StringUtils
lang15b,org.apache.commons.lang3.reflect.TypeUtils
lang16b,org.apache.commons.lang3.math.NumberUtils
lang17b,org.apache.commons.lang3.text.translate.CharSequenceTranslator
lang18b,org.apache.commons.lang3.time.FastDateFormat
lang19b,org.apache.commons.lang3.text.translate.NumericEntityUnescaper
lang20b,org.apache.commons.lang3.StringUtils
lang21b,org.apache.commons.lang3.time.DateUtils
lang22b,org.apache.commons.lang3.math.Fraction
lang24b,org.apache.commons.lang3.math.NumberUtils
lang26b,org.apache.commons.lang3.time.FastDateFormat
lang27b,org.apache.commons.lang3.math.NumberUtils
lang28b,org.apache.commons.lang3.text.translate.NumericEntityUnescaper
lang29b,org.apache.commons.lang3.SystemUtils
lang31b,org.apache.commons.lang3.StringUtils
lang32b,org.apache.commons.lang3.builder.HashCodeBuilder
lang33b,org.apache.commons.lang3.ClassUtils
lang34b,org.apache.commons.lang3.builder.ToStringStyle
lang35b,org.apache.commons.lang3.ArrayUtils
lang36b,org.apache.commons.lang3.math.NumberUtils
lang37b,org.apache.commons.lang3.ArrayUtils
lang38b,org.apache.commons.lang3.time.FastDateFormat
lang39b,org.apache.commons.lang3.StringUtils
lang40b,org.apache.commons.lang.StringUtils
lang41b,org.apache.commons.lang.ClassUtils
lang42b,org.apache.commons.lang.Entities
lang43b,org.apache.commons.lang.text.ExtendedMessageFormat
lang44b,org.apache.commons.lang.NumberUtils
lang45b,org.apache.commons.lang.WordUtils
lang46b,org.apache.commons.lang.StringEscapeUtils
lang47b,org.apache.commons.lang.text.StrBuilder
lang48b,org.apache.commons.lang.builder.EqualsBuilder
lang49b,org.apache.commons.lang.math.Fraction
lang50b,org.apache.commons.lang.time.FastDateFormat
lang51b,org.apache.commons.lang.BooleanUtils
lang52b,org.apache.commons.lang.StringEscapeUtils
lang53b,org.apache.commons.lang.time.DateUtils
lang54b,org.apache.commons.lang.LocaleUtils
lang55b,org.apache.commons.lang.time.StopWatch
lang57b,org.apache.commons.lang.LocaleUtils
lang58b,org.apache.commons.lang.math.NumberUtils
lang59b,org.apache.commons.lang.text.StrBuilder
lang60b,org.apache.commons.lang.text.StrBuilder
lang61b,org.apache.commons.lang.text.StrBuilder
lang62b,org.apache.commons.lang.Entities
lang64b,org.apache.commons.lang.enums.ValuedEnum
lang65b,org.apache.commons.lang.time.DateUtils
math1b,org.apache.commons.math3.fraction.Fraction
math1b,org.apache.commons.math3.fraction.BigFraction
math2b,org.apache.commons.math3.distribution.HypergeometricDistribution
math3b,org.apache.commons.math3.util.MathArrays
math4b,org.apache.commons.math3.geometry.euclidean.threed.SubLine
math4b,org.apache.commons.math3.geometry.euclidean.twod.SubLine
math5b,org.apache.commons.math3.complex.Complex
math6b,org.apache.commons.math3.optim.nonlinear.scalar.noderiv.PowellOptimizer
math6b,org.apache.commons.math3.optim.nonlinear.scalar.gradient.NonLinearConjugateGradientOptimizer
math6b,org.apache.commons.math3.optim.nonlinear.scalar.noderiv.SimplexOptimizer
math6b,org.apache.commons.math3.optim.nonlinear.vector.jacobian.GaussNewtonOptimizer
math6b,org.apache.commons.math3.optim.nonlinear.scalar.noderiv.CMAESOptimizer
math6b,org.apache.commons.math3.optim.BaseOptimizer
math6b,org.apache.commons.math3.optim.nonlinear.vector.jacobian.LevenbergMarquardtOptimizer
math7b,org.apache.commons.math3.ode.AbstractIntegrator
math8b,org.apache.commons.math3.distribution.DiscreteDistribution
math9b,org.apache.commons.math3.geometry.euclidean.threed.Line
math10b,org.apache.commons.math3.analysis.differentiation.DSCompiler
math11b,org.apache.commons.math3.distribution.MultivariateNormalDistribution
math13b,org.apache.commons.math3.optimization.general.AbstractLeastSquaresOptimizer
math14b,org.apache.commons.math3.optim.nonlinear.vector.jacobian.AbstractLeastSquaresOptimizer
math14b,org.apache.commons.math3.optim.nonlinear.vector.Weight
math15b,org.apache.commons.math3.util.FastMath
math16b,org.apache.commons.math3.util.FastMath
math17b,org.apache.commons.math3.dfp.Dfp
math18b,org.apache.commons.math3.optimization.direct.CMAESOptimizer
math19b,org.apache.commons.math3.optimization.direct.CMAESOptimizer
math20b,org.apache.commons.math3.optimization.direct.CMAESOptimizer
math21b,org.apache.commons.math3.linear.RectangularCholeskyDecomposition
math22b,org.apache.commons.math3.distribution.UniformRealDistribution
math22b,org.apache.commons.math3.distribution.FDistribution
math23b,org.apache.commons.math3.optimization.univariate.BrentOptimizer
math24b,org.apache.commons.math3.optimization.univariate.BrentOptimizer
math25b,org.apache.commons.math3.optimization.fitting.HarmonicFitter
math26b,org.apache.commons.math3.fraction.Fraction
math27b,org.apache.commons.math3.fraction.Fraction
math28b,org.apache.commons.math3.optimization.linear.SimplexSolver
math29b,org.apache.commons.math3.linear.OpenMapRealVector
math30b,org.apache.commons.math3.stat.inference.MannWhitneyUTest
math31b,org.apache.commons.math3.util.ContinuedFraction
math32b,org.apache.commons.math3.geometry.euclidean.twod.PolygonsSet
math33b,org.apache.commons.math3.optimization.linear.SimplexTableau
math34b,org.apache.commons.math3.genetics.ListPopulation
math35b,org.apache.commons.math3.genetics.ElitisticListPopulation
math36b,org.apache.commons.math.fraction.BigFraction
math37b,org.apache.commons.math.complex.Complex
math38b,org.apache.commons.math.optimization.direct.BOBYQAOptimizer
math39b,org.apache.commons.math.ode.nonstiff.EmbeddedRungeKuttaIntegrator
math40b,org.apache.commons.math.analysis.solvers.BracketingNthOrderBrentSolver
math41b,org.apache.commons.math.stat.descriptive.moment.Variance
math42b,org.apache.commons.math.optimization.linear.SimplexTableau
math43b,org.apache.commons.math.stat.descriptive.SummaryStatistics
math44b,org.apache.commons.math.ode.AbstractIntegrator
math45b,org.apache.commons.math.linear.OpenMapRealMatrix
math46b,org.apache.commons.math.complex.Complex
math47b,org.apache.commons.math.complex.Complex
math48b,org.apache.commons.math.analysis.solvers.BaseSecantSolver
math49b,org.apache.commons.math.linear.OpenMapRealVector
math50b,org.apache.commons.math.analysis.solvers.BaseSecantSolver
math51b,org.apache.commons.math.analysis.solvers.BaseSecantSolver
math52b,org.apache.commons.math.geometry.euclidean.threed.Rotation
math53b,org.apache.commons.math.complex.Complex
math54b,org.apache.commons.math.dfp.Dfp
math55b,org.apache.commons.math.geometry.Vector3D
math56b,org.apache.commons.math.util.MultidimensionalCounter
math57b,org.apache.commons.math.stat.clustering.KMeansPlusPlusClusterer
math58b,org.apache.commons.math.optimization.fitting.GaussianFitter
math59b,org.apache.commons.math.util.FastMath
math60b,org.apache.commons.math.distribution.NormalDistributionImpl
math61b,org.apache.commons.math.distribution.PoissonDistributionImpl
math62b,org.apache.commons.math.optimization.univariate.MultiStartUnivariateRealOptimizer
math63b,org.apache.commons.math.util.MathUtils
math64b,org.apache.commons.math.optimization.general.LevenbergMarquardtOptimizer
math65b,org.apache.commons.math.optimization.general.AbstractLeastSquaresOptimizer
math66b,org.apache.commons.math.optimization.univariate.BrentOptimizer
math67b,org.apache.commons.math.optimization.MultiStartUnivariateRealOptimizer
math68b,org.apache.commons.math.optimization.general.LevenbergMarquardtOptimizer
math69b,org.apache.commons.math.stat.correlation.PearsonsCorrelation
math70b,org.apache.commons.math.analysis.solvers.BisectionSolver
math71b,org.apache.commons.math.ode.nonstiff.RungeKuttaIntegrator
math71b,org.apache.commons.math.ode.nonstiff.EmbeddedRungeKuttaIntegrator
math72b,org.apache.commons.math.analysis.solvers.BrentSolver
math73b,org.apache.commons.math.analysis.solvers.BrentSolver
math74b,org.apache.commons.math.ode.nonstiff.EmbeddedRungeKuttaIntegrator
math75b,org.apache.commons.math.stat.Frequency
math76b,org.apache.commons.math.linear.SingularValueDecompositionImpl
math77b,org.apache.commons.math.linear.ArrayRealVector
math77b,org.apache.commons.math.linear.OpenMapRealVector
math78b,org.apache.commons.math.ode.events.EventState
math79b,org.apache.commons.math.util.MathUtils
math80b,org.apache.commons.math.linear.EigenDecompositionImpl
math81b,org.apache.commons.math.linear.EigenDecompositionImpl
math82b,org.apache.commons.math.optimization.linear.SimplexSolver
math83b,org.apache.commons.math.optimization.linear.SimplexTableau
math84b,org.apache.commons.math.optimization.direct.MultiDirectional
math85b,org.apache.commons.math.analysis.solvers.UnivariateRealSolverUtils
math86b,org.apache.commons.math.linear.CholeskyDecompositionImpl
math87b,org.apache.commons.math.optimization.linear.SimplexTableau
math88b,org.apache.commons.math.optimization.linear.SimplexTableau
math89b,org.apache.commons.math.stat.Frequency
math90b,org.apache.commons.math.stat.Frequency
math91b,org.apache.commons.math.fraction.Fraction
math92b,org.apache.commons.math.util.MathUtils
math93b,org.apache.commons.math.util.MathUtils
math94b,org.apache.commons.math.util.MathUtils
math95b,org.apache.commons.math.distribution.FDistributionImpl
math96b,org.apache.commons.math.complex.Complex
math97b,org.apache.commons.math.analysis.BrentSolver
math98b,org.apache.commons.math.linear.BigMatrixImpl
math98b,org.apache.commons.math.linear.RealMatrixImpl
math99b,org.apache.commons.math.util.MathUtils
math100b,org.apache.commons.math.estimation.AbstractEstimator
math101b,org.apache.commons.math.complex.ComplexFormat
math102b,org.apache.commons.math.stat.inference.ChiSquareTestImpl
math103b,org.apache.commons.math.distribution.NormalDistributionImpl
math105b,org.apache.commons.math.stat.regression.SimpleRegression
math106b,org.apache.commons.math.fraction.ProperFractionFormat
time1b,org.joda.time.Partial
time1b,org.joda.time.field.UnsupportedDurationField
time2b,org.joda.time.Partial
time2b,org.joda.time.field.UnsupportedDurationField
time3b,org.joda.time.MutableDateTime
time4b,org.joda.time.Partial
time5b,org.joda.time.Period
time6b,org.joda.time.chrono.GJChronology
time7b,org.joda.time.format.DateTimeFormatter
time8b,org.joda.time.DateTimeZone
time9b,org.joda.time.DateTimeZone
time10b,org.joda.time.base.BaseSingleFieldPeriod
time12b,org.joda.time.LocalDate
time12b,org.joda.time.LocalDateTime
time13b,org.joda.time.format.PeriodFormatterBuilder
time14b,org.joda.time.chrono.BasicMonthOfYearDateTimeField
time15b,org.joda.time.field.FieldUtils
time16b,org.joda.time.format.DateTimeFormatter
time17b,org.joda.time.DateTimeZone
time18b,org.joda.time.chrono.GJChronology
time19b,org.joda.time.DateTimeZone
time20b,org.joda.time.format.DateTimeFormatterBuilder
time22b,org.joda.time.base.BasePeriod
time23b,org.joda.time.DateTimeZone
time24b,org.joda.time.format.DateTimeParserBucket
time25b,org.joda.time.DateTimeZone
time26b,org.joda.time.chrono.ZonedChronology
time27b,org.joda.time.format.PeriodFormatterBuilder
chart1b,org.jfree.chart.renderer.category.AbstractCategoryItemRenderer
chart2b,org.jfree.data.general.DatasetUtilities
chart3b,org.jfree.data.time.TimeSeries
chart4b,org.jfree.chart.plot.XYPlot
chart5b,org.jfree.data.xy.XYSeries
chart6b,org.jfree.chart.util.ShapeList
chart7b,org.jfree.data.time.TimePeriodValues
chart8b,org.jfree.data.time.Week
chart9b,org.jfree.data.time.TimeSeries
chart10b,org.jfree.chart.imagemap.StandardToolTipTagFragmentGenerator
chart11b,org.jfree.chart.util.ShapeUtilities
chart12b,org.jfree.chart.plot.MultiplePiePlot
chart13b,org.jfree.chart.block.BorderArrangement
chart14b,org.jfree.chart.plot.XYPlot
chart14b,org.jfree.chart.plot.CategoryPlot
chart15b,org.jfree.chart.plot.PiePlot
chart16b,org.jfree.data.category.DefaultIntervalCategoryDataset
chart17b,org.jfree.data.time.TimeSeries
chart18b,org.jfree.data.DefaultKeyedValues
chart18b,org.jfree.data.DefaultKeyedValues2D
chart19b,org.jfree.chart.plot.CategoryPlot
chart20b,org.jfree.chart.plot.ValueMarker
chart21b,org.jfree.data.statistics.DefaultBoxAndWhiskerCategoryDataset
chart22b,org.jfree.data.KeyedObjects2D
chart24b,org.jfree.chart.renderer.GrayPaintScale
chart25b,org.jfree.chart.renderer.category.StatisticalBarRenderer
chart26b,org.jfree.chart.axis.Axis
closure1b,com.google.javascript.jscomp.RemoveUnusedVars
closure2b,com.google.javascript.jscomp.TypeCheck
closure3b,com.google.javascript.jscomp.FlowSensitiveInlineVariables
closure4b,com.google.javascript.rhino.jstype.NamedType
closure5b,com.google.javascript.jscomp.InlineObjectLiterals
closure6b,com.google.javascript.jscomp.TypeValidator
closure7b,com.google.javascript.jscomp.type.ChainableReverseAbstractInterpreter
closure8b,com.google.javascript.jscomp.CollapseVariableDeclarations
closure9b,com.google.javascript.jscomp.ProcessCommonJSModules
closure10b,com.google.javascript.jscomp.NodeUtil
closure11b,com.google.javascript.jscomp.TypeCheck
closure12b,com.google.javascript.jscomp.MaybeReachingVariableUse
closure13b,com.google.javascript.jscomp.PeepholeOptimizationsPass
closure14b,com.google.javascript.jscomp.ControlFlowAnalysis
closure16b,com.google.javascript.jscomp.ScopedAliases
closure17b,com.google.javascript.jscomp.TypedScopeCreator
closure18b,com.google.javascript.jscomp.Compiler
closure19b,com.google.javascript.jscomp.type.ChainableReverseAbstractInterpreter
closure20b,com.google.javascript.jscomp.PeepholeSubstituteAlternateSyntax
closure21b,com.google.javascript.jscomp.CheckSideEffects
closure22b,com.google.javascript.jscomp.CheckSideEffects
closure23b,com.google.javascript.jscomp.PeepholeFoldConstants
closure24b,com.google.javascript.jscomp.ScopedAliases
closure25b,com.google.javascript.jscomp.TypeInference
closure26b,com.google.javascript.jscomp.ProcessCommonJSModules
closure27b,com.google.javascript.rhino.IR
closure29b,com.google.javascript.jscomp.InlineObjectLiterals
closure30b,com.google.javascript.jscomp.MustBeReachingVariableDef
closure30b,com.google.javascript.jscomp.FlowSensitiveInlineVariables
closure31b,com.google.javascript.jscomp.Compiler
closure32b,com.google.javascript.jscomp.parsing.JsDocInfoParser
closure33b,com.google.javascript.rhino.jstype.PrototypeObjectType
closure34b,com.google.javascript.jscomp.CodeGenerator
closure34b,com.google.javascript.jscomp.CodePrinter
closure35b,com.google.javascript.jscomp.TypeInference
closure36b,com.google.javascript.jscomp.InlineVariables
closure37b,com.google.javascript.jscomp.parsing.IRFactory
closure37b,com.google.javascript.jscomp.NodeTraversal
closure38b,com.google.javascript.jscomp.CodeConsumer
closure39b,com.google.javascript.rhino.jstype.PrototypeObjectType
closure40b,com.google.javascript.jscomp.NameAnalyzer
closure41b,com.google.javascript.jscomp.FunctionTypeBuilder
closure42b,com.google.javascript.jscomp.parsing.IRFactory
closure43b,com.google.javascript.jscomp.TypedScopeCreator
closure44b,com.google.javascript.jscomp.CodeConsumer
closure45b,com.google.javascript.jscomp.RemoveUnusedVars
closure46b,com.google.javascript.rhino.jstype.RecordType
closure47b,com.google.javascript.jscomp.SourceMap
closure47b,com.google.debugging.sourcemap.SourceMapConsumerV3
closure48b,com.google.javascript.jscomp.TypedScopeCreator
closure49b,com.google.javascript.jscomp.MakeDeclaredNamesUnique
closure50b,com.google.javascript.jscomp.PeepholeReplaceKnownMethods
closure51b,com.google.javascript.jscomp.CodeConsumer
closure52b,com.google.javascript.jscomp.CodeGenerator
closure53b,com.google.javascript.jscomp.InlineObjectLiterals
closure54b,com.google.javascript.jscomp.TypedScopeCreator
closure54b,com.google.javascript.rhino.jstype.FunctionType
closure55b,com.google.javascript.jscomp.FunctionRewriter
closure56b,com.google.javascript.jscomp.SourceFile
closure57b,com.google.javascript.jscomp.ClosureCodingConvention
closure58b,com.google.javascript.jscomp.LiveVariablesAnalysis
closure59b,com.google.javascript.jscomp.Compiler
closure60b,com.google.javascript.jscomp.NodeUtil
closure61b,com.google.javascript.jscomp.NodeUtil
closure62b,com.google.javascript.jscomp.LightweightMessageFormatter
closure64b,com.google.javascript.jscomp.Compiler
closure65b,com.google.javascript.jscomp.CodeGenerator
closure66b,com.google.javascript.jscomp.TypeCheck
closure67b,com.google.javascript.jscomp.AnalyzePrototypeProperties
closure68b,com.google.javascript.jscomp.parsing.JsDocInfoParser
closure69b,com.google.javascript.jscomp.TypeCheck
closure70b,com.google.javascript.jscomp.TypedScopeCreator
closure71b,com.google.javascript.jscomp.CheckAccessControls
closure72b,com.google.javascript.jscomp.FunctionToBlockMutator
closure72b,com.google.javascript.jscomp.RenameLabels
closure73b,com.google.javascript.jscomp.CodeGenerator
closure74b,com.google.javascript.jscomp.PeepholeFoldConstants
closure75b,com.google.javascript.jscomp.NodeUtil
closure76b,com.google.javascript.jscomp.DeadAssignmentsElimination
closure77b,com.google.javascript.jscomp.CodeGenerator
closure78b,com.google.javascript.jscomp.PeepholeFoldConstants
closure79b,com.google.javascript.jscomp.VarCheck
closure79b,com.google.javascript.jscomp.Normalize
closure80b,com.google.javascript.jscomp.NodeUtil
closure81b,com.google.javascript.jscomp.parsing.IRFactory
closure82b,com.google.javascript.rhino.jstype.JSType
closure84b,com.google.javascript.jscomp.parsing.IRFactory
closure85b,com.google.javascript.jscomp.UnreachableCodeElimination
closure86b,com.google.javascript.jscomp.NodeUtil
closure87b,com.google.javascript.jscomp.PeepholeSubstituteAlternateSyntax
closure88b,com.google.javascript.jscomp.DeadAssignmentsElimination
closure89b,com.google.javascript.jscomp.GlobalNamespace
closure89b,com.google.javascript.jscomp.CollapseProperties
closure90b,com.google.javascript.rhino.jstype.FunctionType
closure90b,com.google.javascript.jscomp.FunctionTypeBuilder
closure91b,com.google.javascript.jscomp.CheckGlobalThis
closure92b,com.google.javascript.jscomp.ProcessClosurePrimitives
closure94b,com.google.javascript.jscomp.NodeUtil
closure95b,com.google.javascript.jscomp.TypedScopeCreator
closure96b,com.google.javascript.jscomp.TypeCheck
closure97b,com.google.javascript.jscomp.PeepholeFoldConstants
closure98b,com.google.javascript.jscomp.ReferenceCollectingCallback
closure99b,com.google.javascript.jscomp.CheckGlobalThis
closure100b,com.google.javascript.jscomp.CheckGlobalThis
closure101b,com.google.javascript.jscomp.CommandLineRunner
closure102b,com.google.javascript.jscomp.Normalize
closure103b,com.google.javascript.jscomp.DisambiguateProperties
closure103b,com.google.javascript.jscomp.ControlFlowAnalysis
closure104b,com.google.javascript.rhino.jstype.UnionType
closure105b,com.google.javascript.jscomp.FoldConstants
closure106b,com.google.javascript.rhino.JSDocInfoBuilder
closure106b,com.google.javascript.jscomp.GlobalNamespace
closure107b,com.google.javascript.jscomp.CommandLineRunner
closure108b,com.google.javascript.jscomp.ScopedAliases
closure109b,com.google.javascript.jscomp.parsing.JsDocInfoParser
closure110b,com.google.javascript.rhino.Node
closure110b,com.google.javascript.jscomp.ScopedAliases
closure112b,com.google.javascript.jscomp.TypeInference
closure113b,com.google.javascript.jscomp.ProcessClosurePrimitives
closure114b,com.google.javascript.jscomp.NameAnalyzer
closure115b,com.google.javascript.jscomp.FunctionInjector
closure116b,com.google.javascript.jscomp.FunctionInjector
closure117b,com.google.javascript.jscomp.TypeValidator
closure118b,com.google.javascript.jscomp.DisambiguateProperties
closure119b,com.google.javascript.jscomp.GlobalNamespace
closure120b,com.google.javascript.jscomp.ReferenceCollectingCallback
closure121b,com.google.javascript.jscomp.InlineVariables
closure122b,com.google.javascript.jscomp.parsing.IRFactory
closure123b,com.google.javascript.jscomp.CodeGenerator
closure124b,com.google.javascript.jscomp.ExploitAssigns
closure125b,com.google.javascript.jscomp.TypeCheck
closure126b,com.google.javascript.jscomp.MinimizeExitPoints
closure127b,com.google.javascript.jscomp.UnreachableCodeElimination
closure128b,com.google.javascript.jscomp.CodeGenerator
closure129b,com.google.javascript.jscomp.PrepareAst
closure130b,com.google.javascript.jscomp.CollapseProperties
closure131b,com.google.javascript.rhino.TokenStream
closure132b,com.google.javascript.jscomp.PeepholeSubstituteAlternateSyntax
closure133b,com.google.javascript.jscomp.parsing.JsDocInfoParser
closure134b,com.google.javascript.jscomp.AmbiguateProperties
closure134b,com.google.javascript.jscomp.TypedScopeCreator
closure135b,com.google.javascript.jscomp.DevirtualizePrototypeMethods
closure135b,com.google.javascript.rhino.jstype.FunctionType
closure136b,com.google.javascript.jscomp.MethodCompilerPass
closure136b,com.google.javascript.jscomp.RenameVars
closure137b,com.google.javascript.jscomp.MakeDeclaredNamesUnique
closure137b,com.google.javascript.jscomp.Normalize
closure138b,com.google.javascript.jscomp.ClosureReverseAbstractInterpreter
closure138b,com.google.javascript.jscomp.TypeInference
closure139b,com.google.javascript.jscomp.Normalize
closure140b,com.google.javascript.jscomp.Compiler
closure141b,com.google.javascript.jscomp.NodeUtil
closure141b,com.google.javascript.jscomp.PureFunctionIdentifier
closure142b,com.google.javascript.jscomp.CoalesceVariableNames
closure142b,com.google.javascript.jscomp.parsing.JsDocInfoParser
closure143b,com.google.javascript.jscomp.AbstractCommandLineRunner
closure143b,com.google.javascript.jscomp.RemoveConstantExpressions
closure144b,com.google.javascript.jscomp.FunctionTypeBuilder
closure144b,com.google.javascript.jscomp.TypedScopeCreator
closure144b,com.google.javascript.rhino.jstype.FunctionType
closure145b,com.google.javascript.jscomp.CodeGenerator
closure146b,com.google.javascript.rhino.jstype.JSType
closure147b,com.google.javascript.jscomp.CheckGlobalThis
closure147b,com.google.javascript.jscomp.RuntimeTypeCheck
closure148b,com.google.javascript.jscomp.PeepholeFoldConstants
closure149b,com.google.javascript.jscomp.AbstractCommandLineRunner
closure149b,com.google.javascript.jscomp.CommandLineRunner
closure149b,com.google.javascript.jscomp.Compiler
closure150b,com.google.javascript.jscomp.TypedScopeCreator
closure151b,com.google.javascript.jscomp.CommandLineRunner
closure152b,com.google.javascript.rhino.jstype.FunctionType
closure153b,com.google.javascript.jscomp.Normalize
closure153b,com.google.javascript.jscomp.SyntacticScopeCreator
closure154b,com.google.javascript.jscomp.TypeCheck
closure154b,com.google.javascript.jscomp.TypeValidator
closure155b,com.google.javascript.jscomp.InlineVariables
closure155b,com.google.javascript.jscomp.ReferenceCollectingCallback
closure156b,com.google.javascript.jscomp.CollapseProperties
closure157b,com.google.javascript.jscomp.CodeGenerator
closure157b,com.google.javascript.jscomp.RenamePrototypes
closure157b,com.google.javascript.jscomp.parsing.IRFactory
closure158b,com.google.javascript.jscomp.AbstractCommandLineRunner
closure158b,com.google.javascript.jscomp.CommandLineRunner
closure159b,com.google.javascript.jscomp.InlineFunctions
closure160b,com.google.javascript.jscomp.Compiler
closure161b,com.google.javascript.jscomp.PeepholeFoldConstants
closure162b,com.google.javascript.jscomp.Scope
closure162b,com.google.javascript.jscomp.ScopedAliases
closure163b,com.google.javascript.jscomp.AnalyzePrototypeProperties
closure163b,com.google.javascript.jscomp.CrossModuleMethodMotion
closure164b,com.google.javascript.rhino.jstype.ArrowType
closure165b,com.google.javascript.rhino.jstype.JSTypeRegistry
closure165b,com.google.javascript.rhino.jstype.RecordType
closure165b,com.google.javascript.rhino.jstype.RecordTypeBuilder
closure166b,com.google.javascript.rhino.jstype.PrototypeObjectType
closure167b,com.google.javascript.jscomp.type.SemanticReverseAbstractInterpreter
closure167b,com.google.javascript.rhino.jstype.JSType
closure168b,com.google.javascript.jscomp.TypedScopeCreator
closure169b,com.google.javascript.rhino.jstype.FunctionType
closure169b,com.google.javascript.rhino.jstype.JSType
closure169b,com.google.javascript.rhino.jstype.UnionType
closure170b,com.google.javascript.jscomp.FlowSensitiveInlineVariables
closure171b,com.google.javascript.jscomp.TypeInference
closure171b,com.google.javascript.jscomp.TypedScopeCreator
closure172b,com.google.javascript.jscomp.TypedScopeCreator
closure173b,com.google.javascript.jscomp.CodeGenerator
closure173b,com.google.javascript.jscomp.PeepholeSubstituteAlternateSyntax
closure174b,com.google.javascript.jscomp.JsAst
closure174b,com.google.javascript.jscomp.NodeUtil
closure174b,com.google.javascript.jscomp.ScopedAliases
closure175b,com.google.javascript.jscomp.FunctionInjector
closure176b,com.google.javascript.jscomp.TypeInference
mockito1b,org.mockito.internal.invocation.InvocationMatcher
mockito2b,org.mockito.internal.util.Timer
mockito3b,org.mockito.internal.invocation.InvocationMatcher
mockito4b,org.mockito.exceptions.Reporter
mockito5b,org.mockito.internal.verification.VerificationOverTimeImpl
mockito6b,org.mockito.Matchers
mockito7b,org.mockito.internal.util.reflection.GenericMetadataSupport
mockito8b,org.mockito.internal.util.reflection.GenericMetadataSupport
mockito9b,org.mockito.internal.stubbing.answers.CallsRealMethods
mockito10b,org.mockito.internal.stubbing.defaultanswers.ReturnsDeepStubs
mockito11b,org.mockito.internal.creation.DelegatingMethod
mockito12b,org.mockito.internal.util.reflection.GenericMaster
mockito13b,org.mockito.internal.MockHandler
mockito14b,org.mockito.internal.MockHandler
mockito14b,org.mockito.internal.MockitoCore
mockito15b,org.mockito.internal.configuration.injection.FinalMockCandidateFilter
mockito16b,org.mockito.Mockito
mockito17b,org.mockito.internal.creation.MockSettingsImpl
mockito17b,org.mockito.internal.util.MockUtil
mockito18b,org.mockito.internal.stubbing.defaultanswers.ReturnsEmptyValues
mockito19b,org.mockito.internal.configuration.injection.PropertyAndSetterInjection
mockito20b,org.mockito.internal.creation.bytebuddy.ByteBuddyMockMaker
mockito21b,org.mockito.internal.creation.instance.ConstructorInstantiator
mockito22b,org.mockito.internal.matchers.Equality
mockito23b,org.mockito.internal.stubbing.defaultanswers.ReturnsDeepStubs
mockito24b,org.mockito.internal.stubbing.defaultanswers.ReturnsEmptyValues
mockito25b,org.mockito.internal.stubbing.defaultanswers.ReturnsDeepStubs
mockito27b,org.mockito.internal.util.MockUtil
mockito28b,org.mockito.internal.configuration.DefaultInjectionEngine
mockito29b,org.mockito.internal.matchers.Same
mockito30b,org.mockito.internal.stubbing.defaultanswers.ReturnsSmartNulls
mockito31b,org.mockito.internal.stubbing.defaultanswers.ReturnsSmartNulls
mockito32b,org.mockito.internal.configuration.SpyAnnotationEngine
mockito33b,org.mockito.internal.invocation.InvocationMatcher
mockito34b,org.mockito.internal.invocation.InvocationMatcher
mockito35b,org.mockito.Matchers
mockito36b,org.mockito.internal.invocation.Invocation
mockito37b,org.mockito.internal.stubbing.answers.AnswersValidator
mockito38b,org.mockito.internal.verification.argumentmatching.ArgumentMatchingTool